aulas/buffered_mux/simulation/qsim/buffered_mux.msim.vcd
$comment
	File created using the following command:
		vcd file buffered_mux.msim.vcd -direction
$end
$date
	Mon Apr 18 19:58:51 2022
$end
$version
	ModelSim Version 10.1d
$end
$timescale
	1ps
$end
$scope module buffered_mux_vlg_vec_tst $end
$var reg 8 ! a [7:0] $end
$var reg 8 " b [7:0] $end
$var reg 8 # c [7:0] $end
$var reg 8 $ d [7:0] $end
$var reg 1 % ena $end
$var reg 2 & sel [1:0] $end
$var wire 1 ' y [7] $end
$var wire 1 ( y [6] $end
$var wire 1 ) y [5] $end
$var wire 1 * y [4] $end
$var wire 1 + y [3] $end
$var wire 1 , y [2] $end
$var wire 1 - y [1] $end
$var wire 1 . y [0] $end
$var wire 1 / sampler $end
$scope module i1 $end
$var wire 1 0 gnd $end
$var wire 1 1 vcc $end
$var wire 1 2 unknown $end
$var tri1 1 3 devclrn $end
$var tri1 1 4 devpor $end
$var tri1 1 5 devoe $end
$var wire 1 6 a[1]~input_o $end
$var wire 1 7 b[2]~input_o $end
$var wire 1 8 a[3]~input_o $end
$var wire 1 9 a[4]~input_o $end
$var wire 1 : a[6]~input_o $end
$var wire 1 ; c[7]~input_o $end
$var wire 1 < y[0]~output_o $end
$var wire 1 = y[1]~output_o $end
$var wire 1 > y[2]~output_o $end
$var wire 1 ? y[3]~output_o $end
$var wire 1 @ y[4]~output_o $end
$var wire 1 A y[5]~output_o $end
$var wire 1 B y[6]~output_o $end
$var wire 1 C y[7]~output_o $end
$var wire 1 D sel[1]~input_o $end
$var wire 1 E d[0]~input_o $end
$var wire 1 F c[0]~input_o $end
$var wire 1 G sel[0]~input_o $end
$var wire 1 H a[0]~input_o $end
$var wire 1 I b[0]~input_o $end
$var wire 1 J x[0]~0_combout $end
$var wire 1 K x[0]~1_combout $end
$var wire 1 L ena~input_o $end
$var wire 1 M b[1]~input_o $end
$var wire 1 N d[1]~input_o $end
$var wire 1 O c[1]~input_o $end
$var wire 1 P x[1]~2_combout $end
$var wire 1 Q x[1]~3_combout $end
$var wire 1 R a[2]~input_o $end
$var wire 1 S x[2]~4_combout $end
$var wire 1 T c[2]~input_o $end
$var wire 1 U d[2]~input_o $end
$var wire 1 V x[2]~5_combout $end
$var wire 1 W d[3]~input_o $end
$var wire 1 X b[3]~input_o $end
$var wire 1 Y c[3]~input_o $end
$var wire 1 Z x[3]~6_combout $end
$var wire 1 [ x[3]~7_combout $end
$var wire 1 \ b[4]~input_o $end
$var wire 1 ] x[4]~8_combout $end
$var wire 1 ^ d[4]~input_o $end
$var wire 1 _ c[4]~input_o $end
$var wire 1 ` x[4]~9_combout $end
$var wire 1 a b[5]~input_o $end
$var wire 1 b d[5]~input_o $end
$var wire 1 c c[5]~input_o $end
$var wire 1 d a[5]~input_o $end
$var wire 1 e x[5]~10_combout $end
$var wire 1 f x[5]~11_combout $end
$var wire 1 g d[6]~input_o $end
$var wire 1 h b[6]~input_o $end
$var wire 1 i x[6]~12_combout $end
$var wire 1 j c[6]~input_o $end
$var wire 1 k x[6]~13_combout $end
$var wire 1 l b[7]~input_o $end
$var wire 1 m d[7]~input_o $end
$var wire 1 n a[7]~input_o $end
$var wire 1 o x[7]~14_combout $end
$var wire 1 p x[7]~15_combout $end
$upscope $end
$upscope $end
$enddefinitions $end
#0
$dumpvars
b10101010 !
b10111011 "
b11001100 #
b11011101 $
1%
b0 &
x.
x-
x,
x+
x*
x)
x(
x'
x/
00
11
x2
13
14
15
16
07
18
09
0:
1;
x<
x=
x>
x?
x@
xA
xB
xC
0D
1E
0F
0G
0H
1I
xJ
xK
1L
1M
0N
0O
xP
xQ
0R
xS
1T
1U
xV
1W
1X
1Y
xZ
x[
1\
x]
1^
0_
x`
1a
0b
0c
1d
xe
xf
1g
0h
xi
1j
xk
1l
1m
1n
xo
xp
$end
#2544
z>
z,
#2619
zC
z'
#2639
z?
z+
#2659
z@
zA
z*
z)
#2669
zB
z(
#2735
z<
z.
#2755
z=
z-
#3686
1e
#3759
0S
#3833
1Z
#3961
0]
#3991
1f
#4138
1[
#4184
1o
#4210
0i
#4239
0J
#4287
1P
#4487
1p
#4557
0K
#4574
0`
#4590
1Q
#4818
0k
#6172
xA
x@
x)
x*
#6190
xB
x(
#6297
x>
x,
#6426
xC
x'
#6577
0V
#7745
1?
1+
#8862
0<
0.
#9031
1=
1-
#9642
1A
1)
#10259
0@
0*
#10700
1C
1'
#10784
0>
0,
#10972
0B
0(
#50000
b1 &
0/
#50547
1G
#53929
0f
#53932
0Q
#54041
0o
#54069
1J
#54088
0e
#54103
0Z
#54105
1]
#54106
0P
#54373
1K
#54417
1f
#54433
1Q
#54670
1`
#58720
1<
1.
#60399
1@
1*
#100000
b11 &
b10 &
1/
#100535
1D
#100721
0G
#101452
1V
#102727
1P
#102729
1S
1Z
#102730
1i
#102731
1k
#102733
1o
#102874
1e
#103020
0Q
#103169
0f
#104376
1f
#104380
1Q
#104537
0e
#104541
0S
#104545
0J
#104550
0i
#104555
0]
#104557
0P
#104856
0f
#104863
0K
#104874
0Q
#105168
0`
#105707
1>
1,
#108933
1B
1(
#109168
0<
0.
#109270
0=
0-
#110451
0A
0)
#110853
0@
0*
#150000
b11 &
0/
#150547
1G
#153931
1f
#153934
1Q
#154063
1e
#154066
1S
#154069
1J
#154101
1i
#154105
1]
#154107
1P
#154358
0f
#154373
1K
#154400
0Q
#154670
1`
#158720
1<
1.
#160399
1@
1*
#200000
b1 &
b0 &
1/
#200708
0D
#200721
0G
#202824
0P
#202826
0S
0Z
0i
#202829
0o
#202987
0e
#203151
1Q
#203316
1f
#203434
0k
#204366
0p
#204374
0f
#204378
0Q
#204507
1o
#204511
0[
#204512
1e
#204545
0J
#204554
1Z
#204555
0]
#204558
1P
#204810
1p
#204817
1f
#204859
1[
#204861
1Q
#204863
0K
#205168
0`
#205644
0V
#209168
0<
0.
#209302
1=
1-
#209588
0B
0(
#209851
0>
0,
#210468
1A
1)
#210853
0@
0*
#250000
b1 &
0/
#250547
1G
#253929
0f
#253932
0Q
#254041
0o
#254069
1J
#254088
0e
#254103
0Z
#254105
1]
#254106
0P
#254373
1K
#254417
1f
#254433
1Q
#254670
1`
#258720
1<
1.
#260399
1@
1*
#300000
b11 &
b10 &
1/
#300535
1D
#300721
0G
#301452
1V
#302727
1P
#302729
1S
1Z
#302730
1i
#302731
1k
#302733
1o
#302874
1e
#303020
0Q
#303169
0f
#304376
1f
#304380
1Q
#304537
0e
#304541
0S
#304545
0J
#304550
0i
#304555
0]
#304557
0P
#304856
0f
#304863
0K
#304874
0Q
#305168
0`
#305707
1>
1,
#308933
1B
1(
#309168
0<
0.
#309270
0=
0-
#310451
0A
0)
#310853
0@
0*
#350000
b11 &
0/
#350547
1G
#353931
1f
#353934
1Q
#354063
1e
#354066
1S
#354069
1J
#354101
1i
#354105
1]
#354107
1P
#354358
0f
#354373
1K
#354400
0Q
#354670
1`
#358720
1<
1.
#360399
1@
1*
#400000
b1 &
b0 &
1/
#400708
0D
#400721
0G
#402824
0P
#402826
0S
0Z
0i
#402829
0o
#402987
0e
#403151
1Q
#403316
1f
#403434
0k
#404366
0p
#404374
0f
#404378
0Q
#404507
1o
#404511
0[
#404512
1e
#404545
0J
#404554
1Z
#404555
0]
#404558
1P
#404810
1p
#404817
1f
#404859
1[
#404861
1Q
#404863
0K
#405168
0`
#405644
0V
#409168
0<
0.
#409302
1=
1-
#409588
0B
0(
#409851
0>
0,
#410468
1A
1)
#410853
0@
0*
#450000
b1 &
0/
#450547
1G
#453929
0f
#453932
0Q
#454041
0o
#454069
1J
#454088
0e
#454103
0Z
#454105
1]
#454106
0P
#454373
1K
#454417
1f
#454433
1Q
#454670
1`
#458720
1<
1.
#460399
1@
1*
#500000
b11 &
b10 &
1/
#500535
1D
#500721
0G
#501452
1V
#502727
1P
#502729
1S
1Z
#502730
1i
#502731
1k
#502733
1o
#502874
1e
#503020
0Q
#503169
0f
#504376
1f
#504380
1Q
#504537
0e
#504541
0S
#504545
0J
#504550
0i
#504555
0]
#504557
0P
#504856
0f
#504863
0K
#504874
0Q
#505168
0`
#505707
1>
1,
#508933
1B
1(
#509168
0<
0.
#509270
0=
0-
#510451
0A
0)
#510853
0@
0*
#550000
b11 &
0/
#550547
1G
#553931
1f
#553934
1Q
#554063
1e
#554066
1S
#554069
1J
#554101
1i
#554105
1]
#554107
1P
#554358
0f
#554373
1K
#554400
0Q
#554670
1`
#558720
1<
1.
#560399
1@
1*
#600000
b1 &
b0 &
1/
#600708
0D
#600721
0G
#602824
0P
#602826
0S
0Z
0i
#602829
0o
#602987
0e
#603151
1Q
#603316
1f
#603434
0k
#604366
0p
#604374
0f
#604378
0Q
#604507
1o
#604511
0[
#604512
1e
#604545
0J
#604554
1Z
#604555
0]
#604558
1P
#604810
1p
#604817
1f
#604859
1[
#604861
1Q
#604863
0K
#605168
0`
#605644
0V
#609168
0<
0.
#609302
1=
1-
#609588
0B
0(
#609851
0>
0,
#610468
1A
1)
#610853
0@
0*
#650000
b1 &
0/
#650547
1G
#653929
0f
#653932
0Q
#654041
0o
#654069
1J
#654088
0e
#654103
0Z
#654105
1]
#654106
0P
#654373
1K
#654417
1f
#654433
1Q
#654670
1`
#658720
1<
1.
#660399
1@
1*
#700000
b11 &
b10 &
1/
#700535
1D
#700721
0G
#701452
1V
#702727
1P
#702729
1S
1Z
#702730
1i
#702731
1k
#702733
1o
#702874
1e
#703020
0Q
#703169
0f
#704376
1f
#704380
1Q
#704537
0e
#704541
0S
#704545
0J
#704550
0i
#704555
0]
#704557
0P
#704856
0f
#704863
0K
#704874
0Q
#705168
0`
#705707
1>
1,
#708933
1B
1(
#709168
0<
0.
#709270
0=
0-
#710451
0A
0)
#710853
0@
0*
#750000
b11 &
0/
#750547
1G
#753931
1f
#753934
1Q
#754063
1e
#754066
1S
#754069
1J
#754101
1i
#754105
1]
#754107
1P
#754358
0f
#754373
1K
#754400
0Q
#754670
1`
#758720
1<
1.
#760399
1@
1*
#800000
0%
b1 &
b0 &
1/
#800708
0D
#800711
0L
#800721
0G
#802824
0P
#802826
0S
0Z
0i
#802829
0o
#802987
0e
#803151
1Q
#803316
1f
#803434
0k
#804366
0p
#804374
0f
#804378
0Q
#804507
1o
#804511
0[
#804512
1e
#804545
0J
#804554
1Z
#804555
0]
#804558
1P
#804810
1p
#804817
1f
#804859
1[
#804861
1Q
#804863
0K
#805168
0`
#805644
0V
#807192
z@
z*
#807213
zB
z(
#807316
z>
z,
#807349
zA
z)
#807458
zC
z'
#807855
z?
z+
#808489
z<
z.
#808618
z=
z-
#850000
b1 &
0/
#850547
1G
#853929
0f
#853932
0Q
#854041
0o
#854069
1J
#854088
0e
#854103
0Z
#854105
1]
#854106
0P
#854373
1K
#854417
1f
#854433
1Q
#854670
1`
#900000
b11 &
b10 &
1/
#900535
1D
#900721
0G
#901452
1V
#902727
1P
#902729
1S
1Z
#902730
1i
#902731
1k
#902733
1o
#902874
1e
#903020
0Q
#903169
0f
#904376
1f
#904380
1Q
#904537
0e
#904541
0S
#904545
0J
#904550
0i
#904555
0]
#904557
0P
#904856
0f
#904863
0K
#904874
0Q
#905168
0`
#950000
b11 &
0/
#950547
1G
#953931
1f
#953934
1Q
#954063
1e
#954066
1S
#954069
1J
#954101
1i
#954105
1]
#954107
1P
#954358
0f
#954373
1K
#954400
0Q
#954670
1`
