aulas/memory2/simulation/qsim/memory2.msim.vcd
$comment
	File created using the following command:
		vcd file memory2.msim.vcd -direction
$end
$date
	Mon Apr 18 21:17:29 2022
$end
$version
	ModelSim Version 10.1d
$end
$timescale
	1ps
$end
$scope module memory2_vlg_vec_tst $end
$var reg 4 ! address [3:0] $end
$var reg 1 " clk $end
$var reg 8 # data_in [7:0] $end
$var reg 1 $ write $end
$var wire 1 % data_out [7] $end
$var wire 1 & data_out [6] $end
$var wire 1 ' data_out [5] $end
$var wire 1 ( data_out [4] $end
$var wire 1 ) data_out [3] $end
$var wire 1 * data_out [2] $end
$var wire 1 + data_out [1] $end
$var wire 1 , data_out [0] $end
$var wire 1 - sampler $end
$scope module i1 $end
$var wire 1 . gnd $end
$var wire 1 / vcc $end
$var wire 1 0 unknown $end
$var tri1 1 1 devclrn $end
$var tri1 1 2 devpor $end
$var tri1 1 3 devoe $end
$var wire 1 4 ram~77_regout $end
$var wire 1 5 ram~29_regout $end
$var wire 1 6 ram~21_regout $end
$var wire 1 7 ram~13_regout $end
$var wire 1 8 ram~145_combout $end
$var wire 1 9 ram~37_regout $end
$var wire 1 : ram~146_combout $end
$var wire 1 ; ram~125_regout $end
$var wire 1 < ram~109_regout $end
$var wire 1 = ram~148_combout $end
$var wire 1 > ram~94_regout $end
$var wire 1 ? ram~30_regout $end
$var wire 1 @ ram~151_combout $end
$var wire 1 A ram~46_regout $end
$var wire 1 B ram~78_regout $end
$var wire 1 C ram~14_regout $end
$var wire 1 D ram~155_combout $end
$var wire 1 E ram~110_regout $end
$var wire 1 F ram~156_combout $end
$var wire 1 G ram~70_regout $end
$var wire 1 H ram~38_regout $end
$var wire 1 I ram~158_combout $end
$var wire 1 J ram~95_regout $end
$var wire 1 K ram~79_regout $end
$var wire 1 L ram~163_combout $end
$var wire 1 M ram~31_regout $end
$var wire 1 N ram~15_regout $end
$var wire 1 O ram~165_combout $end
$var wire 1 P ram~119_regout $end
$var wire 1 Q ram~111_regout $end
$var wire 1 R ram~168_combout $end
$var wire 1 S ram~96_regout $end
$var wire 1 T ram~64_regout $end
$var wire 1 U ram~32_regout $end
$var wire 1 V ram~173_combout $end
$var wire 1 W ram~128_regout $end
$var wire 1 X ram~174_combout $end
$var wire 1 Y ram~105_regout $end
$var wire 1 Z ram~33_regout $end
$var wire 1 [ ram~25_regout $end
$var wire 1 \ ram~17_regout $end
$var wire 1 ] ram~185_combout $end
$var wire 1 ^ ram~41_regout $end
$var wire 1 _ ram~186_combout $end
$var wire 1 ` ram~129_regout $end
$var wire 1 a ram~113_regout $end
$var wire 1 b ram~188_combout $end
$var wire 1 c ram~58_regout $end
$var wire 1 d ram~26_regout $end
$var wire 1 e ram~193_combout $end
$var wire 1 f ram~74_regout $end
$var wire 1 g ram~42_regout $end
$var wire 1 h ram~198_combout $end
$var wire 1 i ram~75_regout $end
$var wire 1 j ram~99_regout $end
$var wire 1 k ram~83_regout $end
$var wire 1 l ram~203_combout $end
$var wire 1 m ram~19_regout $end
$var wire 1 n ram~43_regout $end
$var wire 1 o ram~123_regout $end
$var wire 1 p ram~115_regout $end
$var wire 1 q ram~208_combout $end
$var wire 1 r ram~100_regout $end
$var wire 1 s ram~68_regout $end
$var wire 1 t ram~36_regout $end
$var wire 1 u ram~213_combout $end
$var wire 1 v ram~132_regout $end
$var wire 1 w ram~214_combout $end
$var wire 1 x ram~108_regout $end
$var wire 1 y ram~44_regout $end
$var wire 1 z ram~218_combout $end
$var wire 1 { ram~247_combout $end
$var wire 1 | clk~combout $end
$var wire 1 } clk~clkctrl_outclk $end
$var wire 1 ~ ram~13feeder_combout $end
$var wire 1 !! ram~30feeder_combout $end
$var wire 1 "! ram~110feeder_combout $end
$var wire 1 #! ram~15feeder_combout $end
$var wire 1 $! ram~111feeder_combout $end
$var wire 1 %! ram~17feeder_combout $end
$var wire 1 &! ram~105feeder_combout $end
$var wire 1 '! ram~26feeder_combout $end
$var wire 1 (! ram~42feeder_combout $end
$var wire 1 )! ram~75feeder_combout $end
$var wire 1 *! ram~43feeder_combout $end
$var wire 1 +! ram~19feeder_combout $end
$var wire 1 ,! ram~44feeder_combout $end
$var wire 1 -! ram~132feeder_combout $end
$var wire 1 .! write~combout $end
$var wire 1 /! ram~251_combout $end
$var wire 1 0! ram~252_combout $end
$var wire 1 1! ram~133_regout $end
$var wire 1 2! ram~245_combout $end
$var wire 1 3! ram~246_combout $end
$var wire 1 4! ram~117_regout $end
$var wire 1 5! ram~149_combout $end
$var wire 1 6! ram~223_combout $end
$var wire 1 7! ram~224_combout $end
$var wire 1 8! ram~85_regout $end
$var wire 1 9! ram~141_combout $end
$var wire 1 :! ram~221_combout $end
$var wire 1 ;! ram~222_combout $end
$var wire 1 <! ram~93_regout $end
$var wire 1 =! ram~101feeder_combout $end
$var wire 1 >! ram~227_combout $end
$var wire 1 ?! ram~228_combout $end
$var wire 1 @! ram~101_regout $end
$var wire 1 A! ram~142_combout $end
$var wire 1 B! ram~235_combout $end
$var wire 1 C! ram~236_combout $end
$var wire 1 D! ram~69_regout $end
$var wire 1 E! ram~229_combout $end
$var wire 1 F! ram~230_combout $end
$var wire 1 G! ram~53_regout $end
$var wire 1 H! ram~233_combout $end
$var wire 1 I! ram~234_combout $end
$var wire 1 J! ram~45_regout $end
$var wire 1 K! ram~231_combout $end
$var wire 1 L! ram~232_combout $end
$var wire 1 M! ram~61_regout $end
$var wire 1 N! ram~143_combout $end
$var wire 1 O! ram~144_combout $end
$var wire 1 P! ram~147_combout $end
$var wire 1 Q! ram~150_combout $end
$var wire 1 R! ram~126feeder_combout $end
$var wire 1 S! ram~248_combout $end
$var wire 1 T! ram~126_regout $end
$var wire 1 U! ram~62_regout $end
$var wire 1 V! ram~152_combout $end
$var wire 1 W! ram~102_regout $end
$var wire 1 X! ram~134_regout $end
$var wire 1 Y! ram~159_combout $end
$var wire 1 Z! ram~54_regout $end
$var wire 1 [! ram~239_combout $end
$var wire 1 \! ram~240_combout $end
$var wire 1 ]! ram~22_regout $end
$var wire 1 ^! ram~153_combout $end
$var wire 1 _! ram~86_regout $end
$var wire 1 `! ram~118_regout $end
$var wire 1 a! ram~154_combout $end
$var wire 1 b! ram~157_combout $end
$var wire 1 c! ram~160_combout $end
$var wire 1 d! ram~47feeder_combout $end
$var wire 1 e! ram~47_regout $end
$var wire 1 f! ram~55_regout $end
$var wire 1 g! ram~161_combout $end
$var wire 1 h! ram~63_regout $end
$var wire 1 i! ram~71_regout $end
$var wire 1 j! ram~162_combout $end
$var wire 1 k! ram~127_regout $end
$var wire 1 l! ram~135_regout $end
$var wire 1 m! ram~169_combout $end
$var wire 1 n! ram~87_regout $end
$var wire 1 o! ram~103_regout $end
$var wire 1 p! ram~164_combout $end
$var wire 1 q! ram~243_combout $end
$var wire 1 r! ram~244_combout $end
$var wire 1 s! ram~39_regout $end
$var wire 1 t! ram~23_regout $end
$var wire 1 u! ram~166_combout $end
$var wire 1 v! ram~167_combout $end
$var wire 1 w! ram~170_combout $end
$var wire 1 x! ram~136feeder_combout $end
$var wire 1 y! ram~136_regout $end
$var wire 1 z! ram~72_regout $end
$var wire 1 {! ram~104_regout $end
$var wire 1 |! ram~40feeder_combout $end
$var wire 1 }! ram~40_regout $end
$var wire 1 ~! ram~178_combout $end
$var wire 1 !" ram~179_combout $end
$var wire 1 "" ram~249_combout $end
$var wire 1 #" ram~250_combout $end
$var wire 1 $" ram~112_regout $end
$var wire 1 %" ram~225_combout $end
$var wire 1 &" ram~226_combout $end
$var wire 1 '" ram~80_regout $end
$var wire 1 (" ram~241_combout $end
$var wire 1 )" ram~242_combout $end
$var wire 1 *" ram~16_regout $end
$var wire 1 +" ram~48_regout $end
$var wire 1 ," ram~175_combout $end
$var wire 1 -" ram~176_combout $end
$var wire 1 ." ram~177_combout $end
$var wire 1 /" ram~120feeder_combout $end
$var wire 1 0" ram~120_regout $end
$var wire 1 1" ram~56_regout $end
$var wire 1 2" ram~88_regout $end
$var wire 1 3" ram~24feeder_combout $end
$var wire 1 4" ram~24_regout $end
$var wire 1 5" ram~171_combout $end
$var wire 1 6" ram~172_combout $end
$var wire 1 7" ram~180_combout $end
$var wire 1 8" ram~137feeder_combout $end
$var wire 1 9" ram~137_regout $end
$var wire 1 :" ram~121_regout $end
$var wire 1 ;" ram~189_combout $end
$var wire 1 <" ram~97_regout $end
$var wire 1 =" ram~81feeder_combout $end
$var wire 1 >" ram~81_regout $end
$var wire 1 ?" ram~89_regout $end
$var wire 1 @" ram~181_combout $end
$var wire 1 A" ram~182_combout $end
$var wire 1 B" ram~49_regout $end
$var wire 1 C" ram~65_regout $end
$var wire 1 D" ram~183_combout $end
$var wire 1 E" ram~57_regout $end
$var wire 1 F" ram~73feeder_combout $end
$var wire 1 G" ram~73_regout $end
$var wire 1 H" ram~184_combout $end
$var wire 1 I" ram~187_combout $end
$var wire 1 J" ram~190_combout $end
$var wire 1 K" ram~106_regout $end
$var wire 1 L" ram~138_regout $end
$var wire 1 M" ram~199_combout $end
$var wire 1 N" ram~237_combout $end
$var wire 1 O" ram~238_combout $end
$var wire 1 P" ram~34_regout $end
$var wire 1 Q" ram~98_regout $end
$var wire 1 R" ram~191_combout $end
$var wire 1 S" ram~66_regout $end
$var wire 1 T" ram~130feeder_combout $end
$var wire 1 U" ram~130_regout $end
$var wire 1 V" ram~192_combout $end
$var wire 1 W" ram~114feeder_combout $end
$var wire 1 X" ram~114_regout $end
$var wire 1 Y" ram~50_regout $end
$var wire 1 Z" ram~82_regout $end
$var wire 1 [" ram~18feeder_combout $end
$var wire 1 \" ram~18_regout $end
$var wire 1 ]" ram~195_combout $end
$var wire 1 ^" ram~196_combout $end
$var wire 1 _" ram~90_regout $end
$var wire 1 `" ram~122_regout $end
$var wire 1 a" ram~194_combout $end
$var wire 1 b" ram~197_combout $end
$var wire 1 c" ram~200_combout $end
$var wire 1 d" ram~51_regout $end
$var wire 1 e" ram~59_regout $end
$var wire 1 f" ram~201_combout $end
$var wire 1 g" ram~67_regout $end
$var wire 1 h" ram~202_combout $end
$var wire 1 i" ram~131_regout $end
$var wire 1 j" ram~139feeder_combout $end
$var wire 1 k" ram~139_regout $end
$var wire 1 l" ram~209_combout $end
$var wire 1 m" ram~107_regout $end
$var wire 1 n" ram~91_regout $end
$var wire 1 o" ram~204_combout $end
$var wire 1 p" ram~35_regout $end
$var wire 1 q" ram~205_combout $end
$var wire 1 r" ram~27_regout $end
$var wire 1 s" ram~206_combout $end
$var wire 1 t" ram~207_combout $end
$var wire 1 u" ram~210_combout $end
$var wire 1 v" ram~124_regout $end
$var wire 1 w" ram~60_regout $end
$var wire 1 x" ram~92_regout $end
$var wire 1 y" ram~28feeder_combout $end
$var wire 1 z" ram~28_regout $end
$var wire 1 {" ram~211_combout $end
$var wire 1 |" ram~212_combout $end
$var wire 1 }" ram~20_regout $end
$var wire 1 ~" ram~52_regout $end
$var wire 1 !# ram~215_combout $end
$var wire 1 "# ram~84_regout $end
$var wire 1 ## ram~116feeder_combout $end
$var wire 1 $# ram~116_regout $end
$var wire 1 %# ram~216_combout $end
$var wire 1 &# ram~217_combout $end
$var wire 1 '# ram~140feeder_combout $end
$var wire 1 (# ram~140_regout $end
$var wire 1 )# ram~76_regout $end
$var wire 1 *# ram~219_combout $end
$var wire 1 +# ram~220_combout $end
$var wire 1 ,# address~combout [3] $end
$var wire 1 -# address~combout [2] $end
$var wire 1 .# address~combout [1] $end
$var wire 1 /# address~combout [0] $end
$var wire 1 0# data_in~combout [7] $end
$var wire 1 1# data_in~combout [6] $end
$var wire 1 2# data_in~combout [5] $end
$var wire 1 3# data_in~combout [4] $end
$var wire 1 4# data_in~combout [3] $end
$var wire 1 5# data_in~combout [2] $end
$var wire 1 6# data_in~combout [1] $end
$var wire 1 7# data_in~combout [0] $end
$upscope $end
$upscope $end
$enddefinitions $end
#0
$dumpvars
b0 !
0"
b1010100 #
1$
0,
0+
0*
0)
0(
0'
0&
0%
x-
0.
1/
x0
11
12
13
04
05
06
07
08
09
0:
0;
0<
0=
0>
0?
0@
0A
0B
0C
0D
0E
0F
0G
0H
0I
0J
0K
0L
0M
0N
0O
0P
0Q
0R
0S
0T
0U
0V
0W
0X
0Y
0Z
0[
0\
0]
0^
0_
0`
0a
0b
0c
0d
0e
0f
0g
0h
0i
0j
0k
0l
0m
0n
0o
0p
0q
0r
0s
0t
0u
0v
0w
0x
0y
0z
0{
0|
0}
0~
0!!
0"!
1#!
1$!
1%!
1&!
0'!
0(!
1)!
1*!
1+!
0,!
0-!
1.!
0/!
00!
01!
02!
03!
04!
05!
06!
07!
08!
09!
0:!
0;!
0<!
0=!
0>!
0?!
0@!
0A!
0B!
0C!
0D!
0E!
0F!
0G!
0H!
0I!
0J!
0K!
0L!
0M!
0N!
0O!
0P!
0Q!
0R!
0S!
0T!
0U!
0V!
0W!
0X!
0Y!
0Z!
0[!
0\!
0]!
0^!
0_!
0`!
0a!
0b!
0c!
1d!
0e!
0f!
0g!
0h!
0i!
0j!
0k!
0l!
0m!
0n!
0o!
0p!
0q!
0r!
0s!
0t!
0u!
0v!
0w!
0x!
0y!
0z!
0{!
0|!
0}!
0~!
0!"
0""
0#"
0$"
0%"
0&"
0'"
1("
1)"
0*"
0+"
0,"
0-"
0."
0/"
00"
01"
02"
03"
04"
05"
06"
07"
18"
09"
0:"
0;"
0<"
1="
0>"
0?"
0@"
0A"
0B"
0C"
0D"
0E"
1F"
0G"
0H"
0I"
0J"
0K"
0L"
0M"
0N"
0O"
0P"
0Q"
0R"
0S"
0T"
0U"
0V"
0W"
0X"
0Y"
0Z"
0["
0\"
0]"
0^"
0_"
0`"
0a"
0b"
0c"
0d"
0e"
0f"
0g"
0h"
0i"
1j"
0k"
0l"
0m"
0n"
0o"
0p"
0q"
0r"
0s"
0t"
0u"
0v"
0w"
0x"
0y"
0z"
0{"
0|"
0}"
0~"
0!#
0"#
0##
0$#
0%#
0&#
0'#
0(#
0)#
0*#
0+#
0/#
0.#
0-#
0,#
07#
06#
15#
04#
13#
02#
11#
00#
$end
#5000
1"
1|
1}
0-
1m
1\
1N
1q"
1]
1O
1s"
1_
1u!
1t"
1I"
1v!
1u"
1J"
1w!
1&
1(
1*
#10000
0"
0|
0}
1-
#15000
1"
1|
1}
0-
#20000
0"
0|
0}
1-
#25000
1"
1|
1}
0-
#30000
b1 !
b11010100 #
b10010100 #
b10110100 #
b10100100 #
b10100000 #
b10100010 #
b10100011 #
0"
17#
16#
05#
03#
12#
01#
10#
1/#
0|
0}
1-
1=!
1~
1R!
1"!
1!!
0d!
0$!
0#!
0F"
0="
08"
0&!
0%!
1["
1W"
1T"
1(!
1'!
0j"
0+!
0*!
0)!
1'#
1##
1y"
1-!
1,!
0s"
0q"
0("
0u!
1[!
0]
0O
0t"
0)"
0v!
1\!
0_
0u"
0w!
0I"
0J"
0&
0*
0(
#35000
1"
1|
1}
0-
1z"
1]!
1d
16
1{"
1^!
1e
18
1|"
1a!
1a"
1:
1+#
1b!
1b"
1P!
1c!
1c"
1Q!
1%
1+
1'
1,
#40000
0"
0|
0}
1-
#45000
1"
1|
1}
0-
#50000
0"
0|
0}
1-
#55000
1"
1|
1}
0-
#60000
b11 !
b10 !
b100011 #
b11 #
b10 #
0"
07#
02#
00#
0/#
1.#
0|
0}
1-
0=!
0~
0["
0W"
0T"
0(!
0'!
0'#
0##
0y"
0-!
0,!
0+#
0b"
1N"
0b!
0[!
08
0c"
0c!
0:
1O"
0\!
0P!
0%
0'
0+
0Q!
0,
#65000
1"
1|
1}
0-
1?
1@
1V!
1c!
1+
#70000
0"
0|
0}
1-
#75000
1"
1|
1}
0-
#80000
0"
0|
0}
1-
#85000
1"
1|
1}
0-
#90000
b1010 #
b1110 #
b11 !
b10001110 #
b10001111 #
0"
1/#
17#
15#
14#
10#
0|
0}
1-
1+#
1&#
1q"
1f"
1b"
0N"
1D"
1@"
1."
1q!
1g!
1b!
1N!
19!
1q
1l
1b
1]
1R
1O
1L
1=
18
1=!
1~
1d!
1$!
1#!
13"
1/"
1|!
1x!
1'#
1##
1y"
1-!
1,!
0+#
0O"
1r!
0c!
1%
0%
0+
#95000
1"
1|
1}
0-
1}!
1s!
1y
1H
19
1~!
1u!
1z
1I
1:
1!"
1v!
1*#
1Y!
1P!
17"
1w!
1+#
1c!
1Q!
1)
1*
1%
1+
1,
#100000
0"
0|
0}
1-
#105000
1"
1|
1}
0-
#110000
0"
0|
0}
1-
#115000
1"
1|
1}
0-
#120000
b111 !
b11001111 #
b101 !
b11000111 #
b11000011 #
b100 !
0"
05#
04#
11#
0/#
0.#
1-#
0|
0}
1-
0d!
0$!
0#!
03"
0/"
0|!
0x!
1j"
1+!
1*!
1)!
0&#
1s"
1o"
0f"
0b"
1H"
0D"
0@"
1;"
0."
0q!
1p!
0g!
0b!
1O!
0N!
1H!
09!
15!
0q
0l
0b
0R
0L
0=
08
1l"
1h"
1c"
1A"
1m!
1j!
1A!
1_
0*#
0|"
0{"
0!"
0~!
0w!
0v!
0^!
0V!
0P!
0z
0e
0I
0@
0+#
0h"
0c"
1I"
0H"
0A"
07"
0r!
0j!
0c!
1P!
0O!
1I!
0A!
0Q!
0l"
0o"
0;"
0m!
0p!
05!
0:
1u"
1w!
0a!
0a"
0Y!
1'
0*
0u"
1J"
0I"
0w!
1Q!
0P!
0%
0'
0)
0+
0,
1&
1*
0J"
0Q!
0&
1(
0*
1,
0(
0,
#125000
1"
1|
1}
0-
1~"
1d"
1J!
1A
1!#
1f"
1N!
1F
1%#
1h"
1O!
1b!
1&#
1u"
1P!
1c!
1+#
1Q!
1&
1+
1%
1,
#130000
0"
0|
0}
1-
#135000
1"
1|
1}
0-
#140000
0"
0|
0}
1-
#145000
1"
1|
1}
0-
#150000
b11000010 #
b10000010 #
b101 !
0"
1/#
07#
01#
0|
0}
1-
0+#
0&#
0s"
0q"
0f"
0b!
0O!
0N!
0H!
1E!
0]
0O
18
0=!
0~
0j"
0+!
0*!
0)!
0h"
0c!
0P!
0I!
1F!
0_
0u!
1:
0%
0u"
0Q!
0+
0&
0,
#155000
1"
1|
1}
0-
1w"
1Z!
1|"
1^!
1+#
1a!
1b!
1%
1c!
1+
#160000
0"
0|
0}
1-
#165000
1"
1|
1}
0-
#170000
0"
0|
0}
1-
#175000
1"
1|
1}
0-
#180000
b10 #
b111 !
b11 #
b1000011 #
b110 !
0"
0/#
1.#
17#
11#
00#
0|
0}
1-
0+#
0b!
1K!
0E!
08
0c!
1=!
1~
1j"
1+!
1*!
1)!
0'#
0##
0y"
0-!
0,!
1L!
0F!
0:
0%
0+
#185000
1"
1|
1}
0-
1g"
1U!
1M!
1h"
1V!
1N!
1u"
1c!
1O!
1P!
1&
1+
1Q!
1,
#190000
0"
0|
0}
1-
#195000
1"
1|
1}
0-
#200000
0"
0|
0}
1-
#205000
1"
1|
1}
0-
#210000
b1010011 #
b1010001 #
b1010000 #
b111 !
0"
1/#
07#
06#
13#
0|
0}
1-
1+#
1&#
1q"
1f"
1b"
1D"
1@"
1."
1g!
1b!
0O!
0K!
1B!
19!
1q
1l
1b
1]
1R
1O
1L
1=
18
0=!
0~
0R!
0"!
0!!
1F"
1="
18"
1&!
1%!
0+#
0h"
0c!
0P!
0L!
1C!
1u!
1:
1%
0u"
0Q!
0%
0+
0&
0,
#215000
1"
1|
1}
0-
1G"
1i
1H"
1h"
1I"
1u"
1J"
1&
1(
#220000
0"
0|
0}
1-
#225000
1"
1|
1}
0-
#230000
0"
0|
0}
1-
#235000
1"
1|
1}
0-
#240000
b1111 !
b1011 !
b1010100 #
b1001 !
b10100 #
b10110 #
b1000 !
0"
16#
15#
01#
0/#
0.#
0-#
1,#
0|
0}
1-
1R!
1"!
1!!
1d!
1$!
1#!
0j"
0+!
0*!
0)!
1+#
1s"
1o"
0b"
0D"
0@"
1;"
17"
0."
1%"
1p!
0g!
1O!
0B!
09!
15!
0q
0l
0b
0R
0L
0=
08
1l"
1c"
1A"
1m!
1j!
1c!
1A!
1_
0!#
0|"
0u"
0I"
0^!
0V!
0F
0%#
0J"
0a!
1t"
0c"
0H"
0A"
1J"
07"
1&"
1v!
0j!
0C!
0A!
1Q!
0l"
0o"
0;"
0m!
0p!
05!
0:
0b!
0&#
1%
1)
1'
1+
0&
0(
1u"
0J"
1w!
0Q!
0t"
0v!
0c!
0+#
0'
1(
0)
1,
0u"
0w!
1&
0(
1*
0,
0+
0%
0&
0*
#245000
1"
1|
1}
0-
1>"
1K
1B
1@"
1L
1D
1A"
1p!
1F
1J"
1v!
1b!
1w!
1c!
1(
1*
1+
#250000
0"
0|
0}
1-
#255000
1"
1|
1}
0-
#260000
0"
0|
0}
1-
#265000
1"
1|
1}
0-
#270000
b110110 #
b100110 #
b100111 #
b100101 #
b1001 !
0"
1/#
17#
06#
03#
12#
0|
0}
1-
0s"
0q"
0f"
0@"
0%"
0p!
0b!
0O!
0N!
16!
0]
0O
0L
18
1=!
1~
0R!
0"!
0!!
0F"
0="
08"
0&!
0%!
1["
1W"
1T"
1(!
1'!
0h"
0A"
0&"
0v!
0c!
17!
0_
0u!
1:
0J"
0w!
0+
0(
0*
#275000
1"
1|
1}
0-
1_"
1n!
18!
1a"
1p!
19!
1b"
1v!
1A!
1c"
1w!
1Q!
1'
1*
1,
#280000
0"
0|
0}
1-
#285000
1"
1|
1}
0-
#290000
0"
0|
0}
1-
#295000
1"
1|
1}
0-
#300000
b10100101 #
b10100001 #
b1011 !
b10110001 #
b10110000 #
b1010 !
0"
0/#
1.#
07#
05#
13#
10#
0|
0}
1-
0b"
0p!
1N!
1:!
09!
06!
08
1h"
0c"
0A!
0=!
0~
0d!
0$!
0#!
1F"
1="
18"
1&!
1%!
1'#
1##
1y"
1-!
1,!
0v!
1O!
1;!
07!
0:
0Q!
0'
0w!
0,
0*
#305000
1"
1|
1}
0-
1Q"
1<"
1r
1R"
1A"
1w
1V"
1J"
1&#
1c"
1+#
1(
1'
1%
#310000
0"
0|
0}
1-
#315000
1"
1|
1}
0-
#320000
0"
0|
0}
1-
#325000
1"
1|
1}
0-
#330000
b10111000 #
b11111000 #
b1111000 #
b1101000 #
b1101001 #
b1011 !
0"
1/#
17#
14#
03#
11#
00#
0|
0}
1-
0+#
1q"
1f"
1b"
1D"
1@"
1."
1p!
1g!
1b!
0O!
1>!
0:!
19!
1q
1l
1b
1]
1R
1O
1L
1=
18
1=!
1~
13"
1/"
1|!
1x!
0F"
0="
08"
0&!
0%!
1j"
1+!
1*!
1)!
0'#
0##
0y"
0-!
0,!
0c"
1H"
0A"
1v!
1?!
0;!
1u!
0p!
1:
0%
0J"
1w!
0v!
0'
0w!
0(
1*
0*
#335000
1"
1|
1}
0-
1m"
1K"
1{!
1@!
1o"
1M"
1~!
1A!
1t"
1c"
1!"
1Q!
1u"
17"
1'
1,
1&
1)
#340000
0"
0|
0}
1-
#345000
1"
1|
1}
0-
#350000
0"
0|
0}
1-
#355000
1"
1|
1}
0-
#360000
b1111 !
b1101011 #
b1101 !
b1101010 #
b1100 !
0"
07#
16#
0/#
0.#
1-#
0|
0}
1-
0=!
0~
1R!
1"!
1!!
1+#
0&#
1s"
0b"
0D"
1;"
0."
1""
1p!
0g!
1O!
0>!
09!
15!
0q
0l
0b
0R
0=
08
1l"
1A"
1m!
1j!
1c!
1_
1!#
1|"
1{"
0u"
1]"
0V"
1I"
15"
1,"
0!"
1v!
1^!
1V!
1P!
1z
1u
1h
1e
1V
1I
0F
1@
0+#
0c"
0H"
1J"
07"
1#"
0j!
0?!
0A!
0l"
0o"
0;"
0m!
05!
0:
1u"
1w!
0|"
0w
0M"
0a"
0b!
0V!
1%
1+
0&
0w!
0Q!
0u"
0J"
0c!
0%
0'
1(
0)
1&
1*
0*
0,
0&
0(
0+
#365000
1"
1|
1}
0-
1X"
1$"
1p
1E
1^"
1-"
1q
1F
1b"
1."
1l"
1b!
1c"
17"
1u"
1c!
1'
1)
1&
1+
#370000
0"
0|
0}
1-
#375000
1"
1|
1}
0-
#380000
0"
0|
0}
1-
#385000
1"
1|
1}
0-
#390000
b1100010 #
b1101 !
0"
1/#
04#
0|
0}
1-
0s"
0q"
0f"
0b"
0@"
07"
0."
0""
0p!
0b!
0O!
0N!
19!
12!
0q
0]
0O
0L
18
03"
0/"
0|!
0x!
0h"
0c"
0A"
0#"
0c!
1A!
13!
0l"
0_
0u!
1p!
1:
0)
0u"
0'
0+
0&
#395000
1"
1|
1}
0-
1`"
1`!
1o
1a"
1a!
1q
1b"
1b!
1l"
1c"
1c!
1u"
1'
1+
1&
#400000
0"
0|
0}
1-
#405000
1"
1|
1}
0-
#410000
0"
0|
0}
1-
#415000
1"
1|
1}
0-
#420000
b1000010 #
b1010010 #
b1010000 #
b1111 !
b1011000 #
b1110 !
0"
0/#
1.#
06#
14#
13#
02#
0|
0}
1-
0b"
0p!
0b!
1N!
09!
02!
1{
0q
08
0l"
1h"
0c"
1A"
0c!
0R!
0"!
0!!
13"
1/"
1|!
1x!
1F"
1="
18"
1&!
1%!
0["
0W"
0T"
0(!
0'!
1O!
0A!
03!
1S!
0:
0u"
0'
0+
0&
#425000
1"
1|
1}
0-
1i"
1`
1W
1l"
1b
1X
1u"
1;"
1."
1J"
17"
1&
1(
1)
#430000
0"
0|
0}
1-
#435000
1"
1|
1}
0-
#440000
0"
0|
0}
1-
#445000
1"
1|
1}
0-
#450000
b1011100 #
b11100 #
b10011100 #
b1111 !
0"
1/#
15#
01#
10#
0|
0}
1-
1&#
1q"
1f"
1b"
1D"
1@"
0;"
07"
1p!
1g!
1b!
0O!
19!
1/!
0{
1q
1l
1]
1R
1O
1L
1=
18
1d!
1$!
1#!
0j"
0+!
0*!
0)!
1'#
1##
1y"
1-!
1,!
1H"
0A"
0J"
1A!
10!
0S!
0l"
1o"
1u!
0p!
1:
0)
0u"
0(
0&
#455000
1"
1|
1}
0-
1(#
19"
1y!
1l!
1*#
1;"
1!"
1m!
1+#
1J"
17"
1w!
1%
1(
1)
1*
#460000
0"
0|
0}
1-
#465000
1"
1|
1}
0-
#470000
0"
0|
0}
1-
#475000
1"
1|
1}
0-
#480000
0$
b111 !
b11 !
b10011101 #
b10011111 #
b1 !
b11011111 #
b0 !
0"
0.!
17#
16#
11#
0/#
0.#
0-#
0,#
0|
0}
1-
00!
1=!
1~
1R!
1"!
1!!
1j"
1+!
1*!
1)!
0&#
1s"
0D"
1("
1p!
0g!
1O!
09!
15!
0/!
0l
0b
0R
0=
08
1l"
1c"
1A"
1j!
1c!
1_
0!#
1|"
1u"
0t"
0]"
1V"
0R"
0I"
16"
05"
0,"
1V!
0u
0h
0V
0D
1%#
1M"
1Y!
1Q!
1w
0+#
1t"
0H"
0j!
0A!
0o"
0;"
0m!
05!
0:
0u"
0J"
1I"
0%#
0^"
0V"
06"
0-"
0w
0M"
0X
0F
1&#
1'
1+
1&
1,
1u"
1J"
0P!
0&#
0b"
0."
0b!
1+#
0%
0&
0(
0Q!
0+#
0c"
07"
0c!
1&
1(
1%
0,
0%
0'
0)
0+
#485000
1"
1|
1}
0-
#490000
0"
0|
0}
1-
#495000
1"
1|
1}
0-
#500000
0"
0|
0}
1-
#505000
1"
1|
1}
0-
#510000
b11001111 #
b11000111 #
b1000111 #
b1000101 #
b1 !
0"
1/#
06#
04#
03#
00#
0|
0}
1-
1+#
0s"
0q"
0f"
1b"
0@"
0("
0p!
1b!
1[!
0O!
0N!
19!
0]
0O
0L
18
0R!
0"!
0!!
03"
0/"
0|!
0x!
0F"
0="
08"
0&!
0%!
0'#
0##
0y"
0-!
0,!
0t"
0h"
1c"
0A"
1c!
1A!
0_
0u!
1p!
1:
1%
0u"
0I"
0v!
1P!
1'
1+
0J"
0w!
1Q!
0&
0(
0*
1,
#515000
1"
1|
1}
0-
#520000
0"
0|
0}
1-
#525000
1"
1|
1}
0-
#530000
0"
0|
0}
1-
#535000
1"
1|
1}
0-
#540000
b1000001 #
b11 !
b1 #
b10000001 #
b10 !
0"
0/#
1.#
05#
01#
10#
0|
0}
1-
0+#
0b"
1N"
0p!
0b!
0[!
1N!
09!
0q
1b
08
0l"
1h"
0c"
1A"
0d!
0$!
0#!
0j"
0+!
0*!
0)!
1'#
1##
1y"
1-!
1,!
1O!
0A!
1l"
1;"
0:
0%
0'
0P!
0Q!
0,
#545000
1"
1|
1}
0-
#550000
0"
0|
0}
1-
#555000
1"
1|
1}
0-
#560000
0"
0|
0}
1-
#565000
1"
1|
1}
0-
#570000
b10100001 #
b10101001 #
b11 !
0"
1/#
14#
12#
0|
0}
1-
1+#
1&#
1q"
1f"
1b"
0N"
1D"
1@"
1."
1q!
1p!
1g!
1b!
0O!
19!
1q
1l
1]
1R
1O
1L
1=
18
13"
1/"
1|!
1x!
1["
1W"
1T"
1(!
1'!
1H"
0A"
17"
1A!
0l"
1o"
1m!
1u!
0p!
1:
1%
1v!
1P!
1)
1w!
1Q!
1*
1,
#575000
1"
1|
1}
0-
#580000
0"
0|
0}
1-
#585000
1"
1|
1}
0-
#590000
0"
0|
0}
1-
#595000
1"
1|
1}
0-
