aulas/address_decoder/simulation/qsim/address_decoder.msim.vcd
$comment
	File created using the following command:
		vcd file address_decoder.msim.vcd -direction
$end
$date
	Mon Apr 18 20:18:50 2022
$end
$version
	ModelSim Version 10.1d
$end
$timescale
	1ps
$end
$scope module address_decoder_vlg_vec_tst $end
$var reg 3 ! x [2:0] $end
$var wire 1 " y [7] $end
$var wire 1 # y [6] $end
$var wire 1 $ y [5] $end
$var wire 1 % y [4] $end
$var wire 1 & y [3] $end
$var wire 1 ' y [2] $end
$var wire 1 ( y [1] $end
$var wire 1 ) y [0] $end
$var wire 1 * sampler $end
$scope module i1 $end
$var wire 1 + gnd $end
$var wire 1 , vcc $end
$var wire 1 - unknown $end
$var tri1 1 . devclrn $end
$var tri1 1 / devpor $end
$var tri1 1 0 devoe $end
$var wire 1 1 Equal0~0_combout $end
$var wire 1 2 Equal0~1_combout $end
$var wire 1 3 Equal0~2_combout $end
$var wire 1 4 Equal0~3_combout $end
$var wire 1 5 Equal0~4_combout $end
$var wire 1 6 Equal0~5_combout $end
$var wire 1 7 Equal0~6_combout $end
$var wire 1 8 Equal0~7_combout $end
$var wire 1 9 x~combout [2] $end
$var wire 1 : x~combout [1] $end
$var wire 1 ; x~combout [0] $end
$upscope $end
$upscope $end
$enddefinitions $end
#0
$dumpvars
b0 !
x)
x(
x'
x&
x%
x$
x#
x"
x*
0+
1,
x-
1.
1/
10
x1
x2
x3
x4
x5
x6
x7
x8
0;
0:
09
$end
#2689
06
#2692
04
#2694
08
#2697
02
#2911
07
#2915
05
#5201
11
#5252
03
#5787
0"
#5815
0&
#6022
0#
#6072
0(
#6082
0$
#6177
0%
#8333
0'
#8577
1)
#50000
b1 !
0*
#50979
1;
#53675
01
#53676
12
#57051
0)
1(
#100000
b11 !
b10 !
1*
#100842
1:
#100979
0;
#103675
11
#103676
02
#106043
01
#106094
13
#107051
0(
#109175
1'
#150000
b11 !
0*
#150979
1;
#153669
03
#153671
14
#156750
0'
#156794
1&
#200000
b111 !
b101 !
b100 !
1*
#200842
0:
#200979
19
0;
#203671
04
#203890
17
#206051
15
#206093
07
#206794
0&
#209313
1%
#250000
b101 !
0*
#250979
1;
#253668
16
#253677
05
#256939
0%
#257061
1$
#300000
b111 !
b110 !
1*
#300842
1:
#300979
0;
#303668
06
#303677
15
#306051
05
#306093
17
#307061
0$
#309204
1#
#350000
b111 !
0*
#350979
1;
#353673
18
07
#356766
1"
#356784
0#
#400000
b11 !
b1 !
b0 !
1*
#400842
0:
#400979
09
0;
#403673
08
#403846
13
#406043
11
#406094
03
#406766
0"
#409419
1)
#450000
b1 !
0*
#450979
1;
#453675
01
#453676
12
#457051
0)
1(
#500000
b11 !
b10 !
1*
#500842
1:
#500979
0;
#503675
11
#503676
02
#506043
01
#506094
13
#507051
0(
#509175
1'
#550000
b11 !
0*
#550979
1;
#553669
03
#553671
14
#556750
0'
#556794
1&
#600000
b111 !
b101 !
b100 !
1*
#600842
0:
#600979
19
0;
#603671
04
#603890
17
#606051
15
#606093
07
#606794
0&
#609313
1%
#650000
b101 !
0*
#650979
1;
#653668
16
#653677
05
#656939
0%
#657061
1$
#700000
b111 !
b110 !
1*
#700842
1:
#700979
0;
#703668
06
#703677
15
#706051
05
#706093
17
#707061
0$
#709204
1#
#750000
b111 !
0*
#750979
1;
#753673
18
07
#756766
1"
#756784
0#
#800000
b11 !
b1 !
b0 !
1*
#800842
0:
#800979
09
0;
#803673
08
#803846
13
#806043
11
#806094
03
#806766
0"
#809419
1)
#850000
b1 !
0*
#850979
1;
#853675
01
#853676
12
#857051
0)
1(
#900000
b11 !
b10 !
1*
#900842
1:
#900979
0;
#903675
11
#903676
02
#906043
01
#906094
13
#907051
0(
#909175
1'
#950000
b11 !
0*
#950979
1;
#953669
03
#953671
14
#956750
0'
#956794
1&
