aulas/dff1/simulation/qsim/dff1.msim.vcd
$comment
	File created using the following command:
		vcd file dff1.msim.vcd -direction
$end
$date
	Mon Apr 18 19:27:05 2022
$end
$version
	ModelSim Version 10.1d
$end
$timescale
	1ps
$end
$scope module dff1_vlg_vec_tst $end
$var reg 1 ! clk $end
$var reg 1 " clr $end
$var reg 1 # d $end
$var wire 1 $ q $end
$var wire 1 % sampler $end
$scope module i1 $end
$var wire 1 & gnd $end
$var wire 1 ' vcc $end
$var wire 1 ( unknown $end
$var tri1 1 ) devclrn $end
$var tri1 1 * devpor $end
$var tri1 1 + devoe $end
$var wire 1 , clk~combout $end
$var wire 1 - d~combout $end
$var wire 1 . q~reg0feeder_combout $end
$var wire 1 / clr~combout $end
$var wire 1 0 q~reg0_regout $end
$upscope $end
$upscope $end
$enddefinitions $end
#0
$dumpvars
0!
0"
0#
x$
x%
0&
1'
x(
1)
1*
1+
0,
0-
x.
0/
x0
$end
#218
00
#786
0.
#3640
0$
#50000
1!
0%
#50979
1,
#100000
0!
1%
#100979
0,
#150000
1!
0%
#150979
1,
#200000
0!
1%
#200979
0,
#250000
1#
1!
0%
#250979
1,
1-
#251765
1.
#300000
0!
1%
#300979
0,
#350000
1!
0%
#350979
1,
#400000
0!
1%
#400979
0,
#450000
1!
0%
#450979
1,
#500000
1"
0#
0!
1%
#500840
1/
#500979
0,
0-
#501765
0.
#550000
1!
0%
#550979
1,
#600000
0!
1%
#600979
0,
#650000
1!
0%
#650979
1,
#700000
0!
1%
#700979
0,
#750000
1#
1!
0%
#750979
1,
1-
#751765
1.
#752385
10
#755807
1$
#800000
0!
1%
#800979
0,
#850000
1!
0%
#850979
1,
#900000
0!
1%
#900979
0,
#950000
1!
0%
#950979
1,
