atividades/counter3/simulation/qsim/counter3.msim.vcd
$comment
	File created using the following command:
		vcd file counter3.msim.vcd -direction
$end
$date
	Tue Apr 19 10:32:39 2022
$end
$version
	ModelSim Version 10.1d
$end
$timescale
	1ps
$end
$scope module counter3_vlg_vec_tst $end
$var reg 1 ! CLK $end
$var reg 1 " EN $end
$var reg 1 # RESET $end
$var wire 1 $ HEX0 [6] $end
$var wire 1 % HEX0 [5] $end
$var wire 1 & HEX0 [4] $end
$var wire 1 ' HEX0 [3] $end
$var wire 1 ( HEX0 [2] $end
$var wire 1 ) HEX0 [1] $end
$var wire 1 * HEX0 [0] $end
$var wire 1 + sampler $end
$scope module i1 $end
$var wire 1 , gnd $end
$var wire 1 - vcc $end
$var wire 1 . unknown $end
$var tri1 1 / devclrn $end
$var tri1 1 0 devpor $end
$var tri1 1 1 devoe $end
$var wire 1 2 CLK~combout $end
$var wire 1 3 Q[0]~0_combout $end
$var wire 1 4 RESET~combout $end
$var wire 1 5 RESET~clkctrl_outclk $end
$var wire 1 6 EN~combout $end
$var wire 1 7 Add0~1 $end
$var wire 1 8 Add0~2_combout $end
$var wire 1 9 Add0~0_combout $end
$var wire 1 : seven_segment_bridge|WideOr5~0_combout $end
$var wire 1 ; seven_segment_bridge|WideOr4~0_combout $end
$var wire 1 < seven_segment_bridge|Equal0~0_combout $end
$var wire 1 = seven_segment_bridge|WideOr3~0_combout $end
$var wire 1 > seven_segment_bridge|WideOr2~0_combout $end
$var wire 1 ? seven_segment_bridge|WideOr1~0_combout $end
$var wire 1 @ seven_segment_bridge|WideOr0~0_combout $end
$var wire 1 A Q [31] $end
$var wire 1 B Q [30] $end
$var wire 1 C Q [29] $end
$var wire 1 D Q [28] $end
$var wire 1 E Q [27] $end
$var wire 1 F Q [26] $end
$var wire 1 G Q [25] $end
$var wire 1 H Q [24] $end
$var wire 1 I Q [23] $end
$var wire 1 J Q [22] $end
$var wire 1 K Q [21] $end
$var wire 1 L Q [20] $end
$var wire 1 M Q [19] $end
$var wire 1 N Q [18] $end
$var wire 1 O Q [17] $end
$var wire 1 P Q [16] $end
$var wire 1 Q Q [15] $end
$var wire 1 R Q [14] $end
$var wire 1 S Q [13] $end
$var wire 1 T Q [12] $end
$var wire 1 U Q [11] $end
$var wire 1 V Q [10] $end
$var wire 1 W Q [9] $end
$var wire 1 X Q [8] $end
$var wire 1 Y Q [7] $end
$var wire 1 Z Q [6] $end
$var wire 1 [ Q [5] $end
$var wire 1 \ Q [4] $end
$var wire 1 ] Q [3] $end
$var wire 1 ^ Q [2] $end
$var wire 1 _ Q [1] $end
$var wire 1 ` Q [0] $end
$upscope $end
$upscope $end
$enddefinitions $end
#0
$dumpvars
0!
1"
0#
0*
0)
0(
0'
0&
0%
1$
x+
0,
1-
x.
1/
10
11
02
13
04
05
16
07
08
09
0:
0;
0<
0=
0>
0?
0@
0`
0_
0^
z]
z\
z[
zZ
zY
zX
zW
zV
zU
zT
zS
zR
zQ
zP
zO
zN
zM
zL
zK
zJ
zI
zH
zG
zF
zE
zD
zC
zB
zA
$end
#25000
1!
12
0+
1`
1?
1>
1=
1:
19
03
1%
1&
1'
1*
#50000
0!
02
1+
#75000
1!
12
0+
1_
0`
1@
0>
0=
1<
0:
13
0&
0'
1(
0*
0$
#100000
0!
02
1+
#125000
1!
12
0+
1`
1>
0<
17
09
03
18
1&
0(
#150000
0!
02
1+
#175000
1!
12
0+
0_
1^
0`
0?
1=
1:
07
08
13
18
0%
1'
1*
#200000
0!
02
1+
#225000
1!
12
0+
1`
0=
0:
19
03
1;
0'
0*
1)
#250000
0!
02
1+
#275000
1!
12
0+
1_
0`
0>
13
0&
#300000
0!
02
1+
#325000
1!
12
0+
1`
0@
1?
1>
1=
17
09
03
08
0;
1%
1&
1'
1$
0)
#350000
0!
02
1+
#375000
1!
12
0+
0_
0^
0`
0?
0>
0=
07
18
13
08
0%
0&
0'
#400000
0!
02
1+
#425000
1!
12
0+
1`
1?
1>
1=
1:
19
03
1%
1&
1'
1*
#450000
0!
02
1+
#475000
1!
12
0+
1_
0`
1@
0>
0=
1<
0:
13
0&
0'
1(
0*
0$
#490000
1#
14
15
1+
0_
0@
0?
0<
09
0%
0(
1$
#500000
0!
02
0+
#525000
1!
12
1+
#540000
0#
04
05
0+
#550000
0!
02
1+
#575000
1!
12
0+
1`
1?
1>
1=
1:
19
03
1%
1&
1'
1*
#600000
0!
02
1+
#625000
1!
12
0+
1_
0`
1@
0>
0=
1<
0:
13
0&
0'
1(
0*
0$
#640000
0"
06
1+
#650000
0!
02
0+
#675000
1!
12
1+
#700000
0!
02
0+
#725000
1!
12
1+
#750000
0!
02
0+
#775000
1!
12
1+
#800000
0!
02
0+
#825000
1!
12
1+
#850000
0!
02
0+
#875000
1!
12
1+
#900000
0!
02
0+
#925000
1!
12
1+
#950000
0!
02
0+
#975000
1!
12
1+
