atividades/seven_segment_decoder/simulation/qsim/seven_segment_decoder.msim.vcd
$comment
	File created using the following command:
		vcd file seven_segment_decoder.msim.vcd -direction
$end
$date
	Tue Apr 19 09:22:26 2022
$end
$version
	ModelSim Version 10.1d
$end
$timescale
	1ps
$end
$scope module seven_segment_decoder_vlg_vec_tst $end
$var reg 18 ! SW [17:0] $end
$var wire 1 " HEX0 [6] $end
$var wire 1 # HEX0 [5] $end
$var wire 1 $ HEX0 [4] $end
$var wire 1 % HEX0 [3] $end
$var wire 1 & HEX0 [2] $end
$var wire 1 ' HEX0 [1] $end
$var wire 1 ( HEX0 [0] $end
$var wire 1 ) sampler $end
$scope module i1 $end
$var wire 1 * gnd $end
$var wire 1 + vcc $end
$var wire 1 , unknown $end
$var tri1 1 - devclrn $end
$var tri1 1 . devpor $end
$var tri1 1 / devoe $end
$var wire 1 0 WideOr5~0_combout $end
$var wire 1 1 WideOr4~0_combout $end
$var wire 1 2 Equal0~0_combout $end
$var wire 1 3 WideOr3~0_combout $end
$var wire 1 4 WideOr2~0_combout $end
$var wire 1 5 WideOr1~0_combout $end
$var wire 1 6 WideOr0~0_combout $end
$var wire 1 7 SW~combout [17] $end
$var wire 1 8 SW~combout [16] $end
$var wire 1 9 SW~combout [15] $end
$var wire 1 : SW~combout [14] $end
$var wire 1 ; SW~combout [13] $end
$var wire 1 < SW~combout [12] $end
$var wire 1 = SW~combout [11] $end
$var wire 1 > SW~combout [10] $end
$var wire 1 ? SW~combout [9] $end
$var wire 1 @ SW~combout [8] $end
$var wire 1 A SW~combout [7] $end
$var wire 1 B SW~combout [6] $end
$var wire 1 C SW~combout [5] $end
$var wire 1 D SW~combout [4] $end
$var wire 1 E SW~combout [3] $end
$var wire 1 F SW~combout [2] $end
$var wire 1 G SW~combout [1] $end
$var wire 1 H SW~combout [0] $end
$upscope $end
$upscope $end
$enddefinitions $end
#0
$dumpvars
b0 !
0(
0'
0&
0%
0$
0#
1"
x)
0*
1+
x,
1-
1.
1/
00
01
02
03
04
05
06
0H
0G
0F
zE
zD
zC
zB
zA
z@
z?
z>
z=
z<
z;
z:
z9
z8
z7
$end
#125000
b1 !
1H
0)
15
14
13
10
1#
1$
1%
1(
#250000
b11 !
b10 !
0H
1G
1)
16
04
03
12
00
0$
0%
1&
0(
0"
#375000
b11 !
1H
0)
14
02
1$
0&
#500000
b111 !
b101 !
b100 !
0H
0G
1F
1)
05
13
10
0#
1%
1(
#625000
b101 !
1H
0)
03
11
00
0%
1'
0(
#750000
b111 !
b110 !
0H
1G
1)
04
0$
#875000
b111 !
1H
0)
06
15
14
13
01
1#
1$
1%
0'
1"
